…
scale_colour_discrete = scale_colour_viridis_d()
scale_fill_discrete = scale_fill_viridis_d()
```

## Problem 1

##### Step 1: Describe the instacart dataset.

``` r
data("instacart")
instacart
```

    ## # A tibble: 1,384,617 x 15
    ##    order_id product_id add_to_cart_ord… reordered user_id eval_set order_number
    ##       <int>      <int>            <int>     <int>   <int> <chr>           <int>
    ##  1        1      49302                1         1  112108 train               4
    ##  2        1      11109                2         1  112108 train               4
    ##  3        1      10246                3         0  112108 train               4
    ##  4        1      49683                4         0  112108 train               4
    ##  5        1      43633                5         1  112108 train               4
    ##  6        1      13176                6         0  112108 train               4
    ##  7        1      47209                7         0  112108 train               4
    ##  8        1      22035                8         1  112108 train               4
    ##  9       36      39612                1         0   79431 train              23
    ## 10       36      19660                2         1   79431 train              23
    ## # … with 1,384,607 more rows, and 8 more variables: order_dow <int>,
    ## #   order_hour_of_day <int>, days_since_prior_order <int>, product_name <chr>,
    ## #   aisle_id <int>, department_id <int>, aisle <chr>, department <chr>
…
##### Step 2: Identify the most in-demand aisles.

Count the number of aisles, and identify which aisles have most items
ordered from them.

``` r
instacart %>% 
  count(aisle) %>% 
  arrange(desc(n))
```

    ## # A tibble: 134 x 2
    ##    aisle                              n
    ##    <chr>                          <int>
    ##  1 fresh vegetables              150609
    ##  2 fresh fruits                  150473
    ##  3 packaged vegetables fruits     78493
    ##  4 yogurt                         55240
    ##  5 packaged cheese                41699
    ##  6 water seltzer sparkling water  36617
    ##  7 milk                           32644
    ##  8 chips pretzels                 31269
    ##  9 soy lactosefree                26240
    ## 10 bread                          23635
    ## # … with 124 more rows
…
    ## Parsed with column specification:
    ## cols(
    ##   .default = col_double(),
    ##   day = col_character()
    ## )

    ## See spec(...) for full column specifications.

``` r
activity_df
```

    ## # A tibble: 50,400 x 6
    ##     week day    wkday_vs_wknd minute_of_day activity_count day_id
    ##    <dbl> <fct>  <fct>                 <dbl>          <dbl>  <dbl>
    ##  1     1 Friday weekday                   1           88.4      1
    ##  2     1 Friday weekday                   2           82.2      1
    ##  3     1 Friday weekday                   3           64.4      1
    ##  4     1 Friday weekday                   4           70.0      1
    ##  5     1 Friday weekday                   5           75.0      1
    ##  6     1 Friday weekday                   6           66.3      1
    ##  7     1 Friday weekday                   7           53.8      1
    ##  8     1 Friday weekday                   8           47.8      1
    ##  9     1 Friday weekday                   9           55.5      1
    ## 10     1 Friday weekday                  10           43.0      1
    ## # … with 50,390 more rows
…
A quick boxplot on the same concept also demonstrates that all of the
‘boxes’ are low activity, such that 75% of activity counts for most
days were 500 or fewer, suggesting this individual spends most of the
day at rest or sedentary with brief periods of increased activity.

## Problem 3

##### Step 1: Read and tidy NOAA dataset

``` r
data("ny_noaa")
ny_noaa
```

    ## # A tibble: 2,595,176 x 7
    ##    id          date        prcp  snow  snwd tmax  tmin 
    ##    <chr>       <date>     <int> <int> <int> <chr> <chr>
    ##  1 US1NYAB0001 2007-11-01    NA    NA    NA <NA>  <NA> 
    ##  2 US1NYAB0001 2007-11-02    NA    NA    NA <NA>  <NA> 
    ##  3 US1NYAB0001 2007-11-03    NA    NA    NA <NA>  <NA> 
    ##  4 US1NYAB0001 2007-11-04    NA    NA    NA <NA>  <NA> 
    ##  5 US1NYAB0001 2007-11-05    NA    NA    NA <NA>  <NA> 
    ##  6 US1NYAB0001 2007-11-06    NA    NA    NA <NA>  <NA> 
    ##  7 US1NYAB0001 2007-11-07    NA    NA    NA <NA>  <NA> 
    ##  8 US1NYAB0001 2007-11-08    NA    NA    NA <NA>  <NA> 
    ##  9 US1NYAB0001 2007-11-09    NA    NA    NA <NA>  <NA> 
    ## 10 US1NYAB0001 2007-11-10    NA    NA    NA <NA>  <NA> 
    ## # … with 2,595,166 more rows
…
